A1 Cyclists and Rain in Auckland
…
rainfall_16_17_18 <-  rbind(rainfall_16_17, rainfall_18)
dim(rainfall_16_17_18)

## [1] 52394     6

Now we plan to make a summary of rainfall by each day over stations. In this case, we create Total.mm. for total number of rainfall and Hours.with.Rain. for hourly rainfall. The new merge data frame is called rainfall.

rainfall <- rainfall_16_17_18 %>%
  group_by(Date.NZST.) %>%
  summarise(Total.mm. = sum(Amount.mm.), 
            Hours.with.Rain. = sum(Amount.mm.) / 24) 

rainfall

## # A tibble: 1,097 x 3
##    Date.NZST. Total.mm. Hours.with.Rain.
##         <int>     <dbl>            <dbl>
##  1   20160101      40.5          1.69   
##  2   20160102      38.3          1.60   
##  3   20160103      13.6          0.567  
##  4   20160104       0.1          0.00417
##  5   20160105       0            0      
##  6   20160106       0            0      
##  7   20160107       0            0      
##  8   20160108      73.1          3.05   
##  9   20160109       0.2          0.00833
## 10   20160110       0            0      
## # ... with 1,087 more rows
…
